C:\Users\acamara\Documents\conductors\archi-new-mam\archi-new-mam-infra-jooq-h2\src\main\java\com\alchimie\mam\infra\Jooq\DataSourceConfiguration.java
C:\Users\acamara\Documents\conductors\archi-new-mam\archi-new-mam-infra-jooq-h2\target\generated-sources\jooq-h2\com\alchimie\mam\tables\records\VideosRecord.java
C:\Users\acamara\Documents\conductors\archi-new-mam\archi-new-mam-infra-jooq-h2\src\main\java\com\alchimie\mam\infra\mapper\VideosMapper.java
C:\Users\acamara\Documents\conductors\archi-new-mam\archi-new-mam-infra-jooq-h2\target\generated-sources\jooq-h2\com\alchimie\mam\tables\Videos.java
C:\Users\acamara\Documents\conductors\archi-new-mam\archi-new-mam-infra-jooq-h2\target\generated-sources\jooq-h2\com\alchimie\mam\tables\pojos\Videos.java
C:\Users\acamara\Documents\conductors\archi-new-mam\archi-new-mam-infra-jooq-h2\target\generated-sources\jooq-h2\com\alchimie\mam\Public.java
C:\Users\acamara\Documents\conductors\archi-new-mam\archi-new-mam-infra-jooq-h2\target\generated-sources\jooq-h2\com\alchimie\mam\DefaultCatalog.java
C:\Users\acamara\Documents\conductors\archi-new-mam\archi-new-mam-infra-jooq-h2\target\generated-sources\jooq-h2\com\alchimie\mam\Indexes.java
C:\Users\acamara\Documents\conductors\archi-new-mam\archi-new-mam-infra-jooq-h2\src\main\java\com\alchimie\mam\infra\Jooq\ObtainMovieJooQApter.java
C:\Users\acamara\Documents\conductors\archi-new-mam\archi-new-mam-infra-jooq-h2\src\main\java\com\alchimie\mam\infra\DemoMamInfraApplication.java
C:\Users\acamara\Documents\conductors\archi-new-mam\archi-new-mam-infra-jooq-h2\src\main\java\com\alchimie\mam\infra\Jooq\JooqUtils.java
C:\Users\acamara\Documents\conductors\archi-new-mam\archi-new-mam-infra-jooq-h2\target\generated-sources\jooq-h2\com\alchimie\mam\Tables.java
C:\Users\acamara\Documents\conductors\archi-new-mam\archi-new-mam-infra-jooq-h2\target\generated-sources\jooq-h2\com\alchimie\mam\Keys.java
