-------------------------------------------------------------------------------
Test set: com.alchimie.mam.infra.jooq.ObtainMovieApterTest
-------------------------------------------------------------------------------
Tests run: 7, Failures: 0, Errors: 0, Skipped: 0, Time elapsed: 5.7 s - in com.alchimie.mam.infra.jooq.ObtainMovieApterTest
